Transcriotomics Feature Selection
…
# determine which OTUs were selected
selected.f.comp1 = selectVar(final.splsda, comp = 1)$name 
selected.f.comp2 = selectVar(final.splsda, comp = 2)$name 

# display the stability values of these OTUs
enframe(perf.splsda$features$stable[[1]][selected.f.comp1]) %>% arrange(desc(abs(value)))

# A tibble: 100 × 2
   name     value      
   <chr>    <table[1d]>
 1 RDH10    1          
 2 ADAMDEC1 1          
 3 CYBB     1          
 4 RNASE2   1          
 5 SPECC1   1          
 6 CXCL1    1          
 7 CTSS     1          
 8 IL17A    1          
 9 CFB      1          
10 SLC7A7   1          
# ℹ 90 more rows
…
