Functional Metagenome Quality Control and Normalization
…
Code

# samples
d <- d %>%
  filter(!(grepl("ex|seq", .$name)))
d

# A tibble: 159 × 2
   name      value
   <chr>     <dbl>
 1 S10    1000000.
 2 S82_1W 1025161.
 3 S71_1W 1044272.
 4 S90_1W 1062072.
 5 S74_1W 1131597.
 6 S13    1196176.
 7 S49    1219496.
 8 S32    1241111.
 9 S78_BL 1243023.
10 S74_6M 1255426.
# ℹ 149 more rows
…
# select the data at:
# community level
comunity_lvl <- RPK_path %>%
  filter(
    Pathway == "UNMAPPED" |
      Pathway == "UNINTEGRATED" |
      !str_detect(Pathway, "\\|")
  )
comunity_lvl

# A tibble: 524 × 170
   Pathway      neg_ex_1 neg_ex_2 zymomock_ex_1 zymomock_ex_2 neg_ex zymomock_ex
   <chr>           <dbl>    <dbl>         <dbl>         <dbl>  <dbl>       <dbl>
 1 UNMAPPED       260851        0      86732.        85181         0    90449.  
 2 UNINTEGRATED   738747        0     828972        829183         0   828495   
 3 1CMET2-PWY:…        0        0        288.          295.        0      272.  
 4 3-HYDROXYPH…        0        0         27.5          29.9       0       25.3 
 5 4-HYDROXYMA…        0        0          3.47          3.37      0        2.92
 6 AEROBACTINS…        0        0         39.2          43.9       0       34.0 
 7 ALLANTOINDE…        0        0         22.3          26.8       0       23.0 
 8 ANAEROFRUCA…        0        0        354.          356.        0      337.  
 9 ANAGLYCOLYS…        0        0        407.          398.        0      391.  
10 ARG+POLYAMI…        0        0        233.          244.        0      218.  
# ℹ 514 more rows
# ℹ 163 more variables: neg_seq_1 <dbl>, neg_seq_2 <dbl>, zymomock_seq_1 <dbl>,
#   zymomock_seq_2 <dbl>, KX63 <dbl>, KX64 <dbl>, S01 <dbl>, S02 <dbl>,
#   S03 <dbl>, S04 <dbl>, S05 <dbl>, S06 <dbl>, S07 <dbl>, S08 <dbl>,
#   S09 <dbl>, S10 <dbl>, S11 <dbl>, S12 <dbl>, S13 <dbl>, S14 <dbl>,
#   S15 <dbl>, S16 <dbl>, S17 <dbl>, S18 <dbl>, S19 <dbl>, S20 <dbl>,
#   S21 <dbl>, S22 <dbl>, S23 <dbl>, S24 <dbl>, S25 <dbl>, S26 <dbl>, …

Code

# taxa level (stratified)
taxa_lvl <- RPK_path %>%
  filter(
    Pathway == "UNMAPPED" |
      str_detect(Pathway, "\\|")
  )
taxa_lvl

# A tibble: 6,312 × 170
   Pathway      neg_ex_1 neg_ex_2 zymomock_ex_1 zymomock_ex_2 neg_ex zymomock_ex
   <chr>           <dbl>    <dbl>         <dbl>         <dbl>  <dbl>       <dbl>
 1 UNMAPPED       260851        0        86732.         85181      0      90449.
 2 UNINTEGRATE…        0        0            0              0      0          0 
 3 UNINTEGRATE…        0        0            0              0      0          0 
 4 UNINTEGRATE…        0        0            0              0      0          0 
 5 UNINTEGRATE…        0        0            0              0      0          0 
 6 UNINTEGRATE…        0        0            0              0      0          0 
 7 UNINTEGRATE…        0        0            0              0      0          0 
 8 UNINTEGRATE…        0        0            0              0      0          0 
 9 UNINTEGRATE…        0        0            0              0      0          0 
10 UNINTEGRATE…        0        0            0              0      0          0 
# ℹ 6,302 more rows
# ℹ 163 more variables: neg_seq_1 <dbl>, neg_seq_2 <dbl>, zymomock_seq_1 <dbl>,
#   zymomock_seq_2 <dbl>, KX63 <dbl>, KX64 <dbl>, S01 <dbl>, S02 <dbl>,
#   S03 <dbl>, S04 <dbl>, S05 <dbl>, S06 <dbl>, S07 <dbl>, S08 <dbl>,
#   S09 <dbl>, S10 <dbl>, S11 <dbl>, S12 <dbl>, S13 <dbl>, S14 <dbl>,
#   S15 <dbl>, S16 <dbl>, S17 <dbl>, S18 <dbl>, S19 <dbl>, S20 <dbl>,
#   S21 <dbl>, S22 <dbl>, S23 <dbl>, S24 <dbl>, S25 <dbl>, S26 <dbl>, …
…
$community_lvl
# A tibble: 169 × 3
   Pathway name           value
   <chr>   <chr>          <dbl>
 1 Total   neg_ex_1           1
 2 Total   neg_ex_2         NaN
 3 Total   zymomock_ex_1      1
 4 Total   zymomock_ex_2      1
 5 Total   neg_ex           NaN
 6 Total   zymomock_ex        1
 7 Total   neg_seq_1          1
 8 Total   neg_seq_2        NaN
 9 Total   zymomock_seq_1     1
10 Total   zymomock_seq_2     1
# ℹ 159 more rows

$taxa_lvl
# A tibble: 169 × 3
   Pathway name           value
   <chr>   <chr>          <dbl>
 1 Total   neg_ex_1           1
 2 Total   neg_ex_2         NaN
 3 Total   zymomock_ex_1      1
 4 Total   zymomock_ex_2      1
 5 Total   neg_ex           NaN
 6 Total   zymomock_ex        1
 7 Total   neg_seq_1          1
 8 Total   neg_seq_2        NaN
 9 Total   zymomock_seq_1     1
10 Total   zymomock_seq_2     1
# ℹ 159 more rows
…
After removing the negative and positive control samples (10 in total), 159 samples are left in the data frame. An aditinal four samples that was run in both sequencing runs were also removed resulting in 154.

Identify pathways with very low relative abundance

To remove very low abundant taxa or functional pathways, pathways with less than 0.005% relative abundance in at least 10 samples are removed. Because we are using proportions, not percentages we have to divide this by 100 when performing the filtering.

Code

# Pathways that have 0% relative abundance for all samples minus controls and run2
null_pathways <- relative_path$community_lvl %>%
  filter(if_all(-Pathway, ~ . == 0))
null_pathways

# A tibble: 94 × 153
   Pathway       S01   S02   S03   S04   S05   S06   S07   S08   S09   S10   S11
   <chr>       <dbl> <dbl> <dbl> <dbl> <dbl> <dbl> <dbl> <dbl> <dbl> <dbl> <dbl>
 1 4-HYDROXYM…     0     0     0     0     0     0     0     0     0     0     0
 2 AEROBACTIN…     0     0     0     0     0     0     0     0     0     0     0
 3 ALLANTOIND…     0     0     0     0     0     0     0     0     0     0     0
 4 ERGOSTEROL…     0     0     0     0     0     0     0     0     0     0     0
 5 LEU-DEG2-P…     0     0     0     0     0     0     0     0     0     0     0
 6 LIPA-CORES…     0     0     0     0     0     0     0     0     0     0     0
 7 LPSSYN-PWY…     0     0     0     0     0     0     0     0     0     0     0
 8 MANNOSYL-C…     0     0     0     0     0     0     0     0     0     0     0
 9 PWY-2201: …     0     0     0     0     0     0     0     0     0     0     0
10 PWY-3502: …     0     0     0     0     0     0     0     0     0     0     0
# ℹ 84 more rows
# ℹ 141 more variables: S12 <dbl>, S13 <dbl>, S14 <dbl>, S15 <dbl>, S16 <dbl>,
#   S17 <dbl>, S18 <dbl>, S19 <dbl>, S20 <dbl>, S21 <dbl>, S22 <dbl>,
#   S23 <dbl>, S24 <dbl>, S25 <dbl>, S26 <dbl>, S27 <dbl>, S28 <dbl>,
#   S29 <dbl>, S30 <dbl>, S31 <dbl>, S32 <dbl>, S33 <dbl>, S34 <dbl>,
#   S35 <dbl>, S36 <dbl>, S37 <dbl>, S38 <dbl>, S39 <dbl>, S40 <dbl>,
#   S41 <dbl>, S42 <dbl>, S43 <dbl>, S44 <dbl>, S45 <dbl>, S46 <dbl>, …

Code

community_lvl <- relative_path$community_lvl %>%
  filter(if_any(-Pathway, ~ . != 0))
community_lvl

# A tibble: 430 × 153
   Pathway           S01     S02     S03     S04     S05     S06     S07     S08
   <chr>           <dbl>   <dbl>   <dbl>   <dbl>   <dbl>   <dbl>   <dbl>   <dbl>
 1 UNMAPPED      4.72e-1 3.17e-1 3.35e-1 4.25e-1 5.08e-1 6.50e-1 5.79e-1 7.36e-1
 2 UNINTEGRATED  5.11e-1 6.56e-1 6.50e-1 5.54e-1 4.74e-1 3.39e-1 4.08e-1 2.55e-1
 3 1CMET2-PWY: … 0       1.36e-5 0       0       0       0       0       0      
 4 3-HYDROXYPHE… 0       0       0       0       0       0       0       0      
 5 ANAEROFRUCAT… 4.01e-5 5.24e-5 3.93e-6 5.02e-6 2.08e-6 0       0       0      
 6 ANAGLYCOLYSI… 7.00e-5 8.16e-5 6.56e-6 8.70e-6 2.74e-5 2.90e-6 1.50e-6 1.98e-6
 7 ARG+POLYAMIN… 0       0       0       0       0       0       0       0      
 8 ARGDEG-PWY: … 0       0       0       0       0       0       0       0      
 9 ARGININE-SYN… 0       3.11e-6 0       0       0       2.45e-6 0       0      
10 ARGSYN-PWY: … 0       3.50e-6 0       0       4.21e-6 0       0       0      
# ℹ 420 more rows
# ℹ 144 more variables: S09 <dbl>, S10 <dbl>, S11 <dbl>, S12 <dbl>, S13 <dbl>,
#   S14 <dbl>, S15 <dbl>, S16 <dbl>, S17 <dbl>, S18 <dbl>, S19 <dbl>,
#   S20 <dbl>, S21 <dbl>, S22 <dbl>, S23 <dbl>, S24 <dbl>, S25 <dbl>,
#   S26 <dbl>, S27 <dbl>, S28 <dbl>, S29 <dbl>, S30 <dbl>, S31 <dbl>,
#   S32 <dbl>, S33 <dbl>, S34 <dbl>, S35 <dbl>, S36 <dbl>, S37 <dbl>,
#   S38 <dbl>, S39 <dbl>, S40 <dbl>, S41 <dbl>, S42 <dbl>, S43 <dbl>, …
…
# pathways with <0.005% relative abundance in at least 10 samples
threshold <- 0.005 / 100 # 0.00005
min_samples <- 10
low_pathways <- community_lvl %>%
  mutate(rowsum = rowSums(across(-Pathway)), .after = "Pathway") %>%
  mutate(
    n = rowSums(across(-Pathway, ~ . >= threshold)),
    .after = "Pathway"
  ) %>%
  filter(rowSums(across(-Pathway, ~ . >= threshold)) < min_samples)

low_pathways[, 1:3]

# A tibble: 305 × 3
   Pathway                                                             n  rowsum
   <chr>                                                           <dbl>   <dbl>
 1 1CMET2-PWY: folate transformations III (E. coli)                    6 5.42e-4
 2 3-HYDROXYPHENYLACETATE-DEGRADATION-PWY: 4-hydroxyphenylacetate…     0 1.74e-5
 3 ARG+POLYAMINE-SYN: superpathway of arginine and polyamine bios…     2 1.11e-4
 4 ARGDEG-PWY: superpathway of L-arginine, putrescine, and 4-amin…     2 5.68e-5
 5 ARGININE-SYN4-PWY: L-ornithine biosynthesis II                      1 2.72e-4
 6 ARGSYN-PWY: L-arginine biosynthesis I (via L-ornithine)             7 7.74e-4
 7 ARGSYNBSUB-PWY: L-arginine biosynthesis II (acetyl cycle)           6 7.69e-4
 8 AST-PWY: L-arginine degradation II (AST pathway)                    2 1.37e-4
 9 BIOTIN-BIOSYNTHESIS-PWY: biotin biosynthesis I                      2 1.40e-4
10 CARNMET-PWY: L-carnitine degradation I                              0 2.64e-6
# ℹ 295 more rows

Code

# remove low abundant pathways from data file
community_lvl <- community_lvl %>%
  filter(rowSums(across(-Pathway, ~ . >= threshold)) >= min_samples)
community_lvl

# A tibble: 115 × 153
   Pathway           S01     S02     S03     S04     S05     S06     S07     S08
   <chr>           <dbl>   <dbl>   <dbl>   <dbl>   <dbl>   <dbl>   <dbl>   <dbl>
 1 UNMAPPED      4.72e-1 3.17e-1 3.35e-1 4.25e-1 5.08e-1 6.50e-1 5.79e-1 7.36e-1
 2 UNINTEGRATED  5.11e-1 6.56e-1 6.50e-1 5.54e-1 4.74e-1 3.39e-1 4.08e-1 2.55e-1
 3 ANAEROFRUCAT… 4.01e-5 5.24e-5 3.93e-6 5.02e-6 2.08e-6 0       0       0      
 4 ANAGLYCOLYSI… 7.00e-5 8.16e-5 6.56e-6 8.70e-6 2.74e-5 2.90e-6 1.50e-6 1.98e-6
 5 ARO-PWY: cho… 1.41e-5 1.42e-5 2.29e-6 0       2.44e-6 3.52e-6 0       3.54e-5
 6 ASPASN-PWY: … 2.13e-5 2.21e-5 4.40e-6 0       1.84e-6 1.76e-6 1.74e-6 0      
 7 BRANCHED-CHA… 0       0       0       0       4.30e-6 0       0       0      
 8 CALVIN-PWY: … 3.06e-5 4.94e-5 0       2.25e-6 0       0       0       0      
 9 COA-PWY-1: s… 5.79e-4 9.07e-4 6.49e-4 6.89e-4 5.49e-4 3.51e-4 4.33e-4 1.52e-4
10 COA-PWY: coe… 5.24e-4 8.27e-4 5.79e-4 6.46e-4 6.66e-4 3.49e-4 4.40e-4 3.59e-4
# ℹ 105 more rows
# ℹ 144 more variables: S09 <dbl>, S10 <dbl>, S11 <dbl>, S12 <dbl>, S13 <dbl>,
#   S14 <dbl>, S15 <dbl>, S16 <dbl>, S17 <dbl>, S18 <dbl>, S19 <dbl>,
#   S20 <dbl>, S21 <dbl>, S22 <dbl>, S23 <dbl>, S24 <dbl>, S25 <dbl>,
#   S26 <dbl>, S27 <dbl>, S28 <dbl>, S29 <dbl>, S30 <dbl>, S31 <dbl>,
#   S32 <dbl>, S33 <dbl>, S34 <dbl>, S35 <dbl>, S36 <dbl>, S37 <dbl>,
#   S38 <dbl>, S39 <dbl>, S40 <dbl>, S41 <dbl>, S42 <dbl>, S43 <dbl>, …

Code

taxa_lvl <- relative_path$taxa_lvl %>%
  filter(grepl(paste0(community_lvl$Pathway, collapse = "|"), .$Pathway))
taxa_lvl

# A tibble: 2,952 × 153
   Pathway     S01   S02   S03   S04   S05   S06   S07   S08     S09   S10   S11
   <chr>     <dbl> <dbl> <dbl> <dbl> <dbl> <dbl> <dbl> <dbl>   <dbl> <dbl> <dbl>
 1 UNMAPPED  0.396 0.248 0.250 0.344 0.442 0.601 0.575 0.701 0.341       1 0.286
 2 UNINTEGR… 0     0     0     0     0     0     0     0     0           0 0    
 3 UNINTEGR… 0     0     0     0     0     0     0     0     0           0 0    
 4 UNINTEGR… 0     0     0     0     0     0     0     0     0           0 0    
 5 UNINTEGR… 0     0     0     0     0     0     0     0     0           0 0    
 6 UNINTEGR… 0     0     0     0     0     0     0     0     0           0 0    
 7 UNINTEGR… 0     0     0     0     0     0     0     0     0.00525     0 0    
 8 UNINTEGR… 0     0     0     0     0     0     0     0     0           0 0    
 9 UNINTEGR… 0     0     0     0     0     0     0     0     0           0 0    
10 UNINTEGR… 0     0     0     0     0     0     0     0     0           0 0    
# ℹ 2,942 more rows
# ℹ 141 more variables: S12 <dbl>, S13 <dbl>, S14 <dbl>, S15 <dbl>, S16 <dbl>,
#   S17 <dbl>, S18 <dbl>, S19 <dbl>, S20 <dbl>, S21 <dbl>, S22 <dbl>,
#   S23 <dbl>, S24 <dbl>, S25 <dbl>, S26 <dbl>, S27 <dbl>, S28 <dbl>,
#   S29 <dbl>, S30 <dbl>, S31 <dbl>, S32 <dbl>, S33 <dbl>, S34 <dbl>,
#   S35 <dbl>, S36 <dbl>, S37 <dbl>, S38 <dbl>, S39 <dbl>, S40 <dbl>,
#   S41 <dbl>, S42 <dbl>, S43 <dbl>, S44 <dbl>, S45 <dbl>, S46 <dbl>, …
…
