Transcriptomics Normalization and Exploration
…
# knitr::kable(., digits = 1)
# Alternative 1.
genes_keep_1 <- countTable %>%
  filter(rowMeans(across(any_of(samples))) > 1.5) %>%
  pluck(., "symbol")
  
countTable %>%
  mutate(meanLog2CPM = rowMeans(across(any_of(samples))),.after="symbol") %>%
  mutate(cumulative_sum = rowSums(across(any_of(samples))),.after="symbol") %>%
  filter(meanLog2CPM < 1.5) %>%
  arrange(desc(cumulative_sum)) %>%
  select(1:3)

# A tibble: 11,882 × 3
   symbol     cumulative_sum meanLog2CPM
   <chr>               <dbl>       <dbl>
 1 PRKAR1AP1             121        1.49
 2 LINC02607             121        1.49
 3 IGKV1D-39             121        1.49
 4 LRRC66                121        1.49
 5 STK32A                121        1.49
 6 ZNF346-IT1            121        1.49
 7 H2AC15                121        1.49
 8 H1-5                  121        1.49
 9 H2BC17                121        1.49
10 RPS15AP40             121        1.49
# ℹ 11,872 more rows
…
# look at top filtered genes
cpm_TMM %>%
  as_tibble(., rownames = "symbol") %>%
  filter(!(symbol %in% genes_keep_2)) %>%
  mutate(n_over_1cpm = rowSums(across(all_of(samples), ~ .x >= 1)), .after="symbol") %>%
  mutate(sum_cpm = rowSums(across(all_of(samples))), .after = "symbol") %>%
  filter(n_over_1cpm < 3) %>% 
  arrange(desc(n_over_1cpm)) %>%
  select(1:3)

# A tibble: 16,655 × 3
   symbol       sum_cpm n_over_1cpm
   <chr>          <dbl>       <dbl>
 1 MIR6859-1      20.3            2
 2 MIR200A        23.9            2
 3 CENPS          29.4            2
 4 PADI4           9.27           2
 5 SH2D5          18.6            2
 6 LOC101929609   29.8            2
 7 PLA2G12AP1     31.8            2
 8 LINC02784      29.1            2
 9 FYB2           20.9            2
10 SGIP1          14.5            2
# ℹ 16,645 more rows
…
Step 6: Exploratory Heatmap

###############
# GET MATRIX #
###############
# get DEGs for clin score 4-5
DEGs  %>%
  dplyr::select(Genes, logFC.groups4.5) %>%
  arrange(`logFC.groups4.5`)

# A tibble: 6,279 × 2
   Genes    logFC.groups4.5
   <chr>              <dbl>
 1 LORICRIN           -7.01
 2 CDSN               -6.45
 3 COL9A1             -5.39
 4 LCE2B              -5.34
 5 DHRS2              -4.74
 6 C6orf15            -4.51
 7 RPTN               -4.43
 8 NPY4R              -4.35
 9 FLG                -4.25
10 KPRP               -4.10
# ℹ 6,269 more rows
…
